{
  "project_info": {
    "project_number": "629076006080",
    "firebase_url": "https://whatsfordinner-392e8.firebaseio.com",
    "project_id": "whatsfordinner-392e8",
    "storage_bucket": "whatsfordinner-392e8.appspot.com"
  },
  "client": [
    {
      "client_info": {
        "mobilesdk_app_id": "1:629076006080:android:fa288de0df8aedbcacc925",
        "android_client_info": {
          "package_name": "edu.cmich.whatsfordinner"
        }
      },
      "oauth_client": [
        {
          "client_id": "629076006080-l05vcl2b6fpglabde5urltfslsnmeafu.apps.googleusercontent.com",
          "client_type": 1,
          "android_info": {
            "package_name": "edu.cmich.whatsfordinner",
            "certificate_hash": "6c84a7a4e870cb3c1e75e374a9b07b62b52fe27b"
          }
        },
        {
          "client_id": "629076006080-egs4t5q6247b83k2rk8mec3mmmojhahl.apps.googleusercontent.com",
          "client_type": 1,
          "android_info": {
            "package_name": "edu.cmich.whatsfordinner",
            "certificate_hash": "0418f3de415e6068f77119dc6900f4bfadb52162"
          }
        },
        {
          "client_id": "629076006080-rqbqnd2911o6cp1c5nl5d58auku68d92.apps.googleusercontent.com",
          "client_type": 1,
          "android_info": {
            "package_name": "edu.cmich.whatsfordinner",
            "certificate_hash": "799da11d1678c3dea26a32e76dc171e4e560c549"
          }
        },
        {
          "client_id": "629076006080-1ecbspfbpjir2pdmnimakb8o257qsg99.apps.googleusercontent.com",
          "client_type": 3
        }
      ],
      "api_key": [
        {
          "current_key": "AIzaSyA0BnE7ALsT3P5bLqkwzr-ROBs0TJmgsRA"
        }
      ],
      "services": {
        "appinvite_service": {
          "other_platform_oauth_client": [
            {
              "client_id": "629076006080-1ecbspfbpjir2pdmnimakb8o257qsg99.apps.googleusercontent.com",
              "client_type": 3
            }
          ]
        }
      }
    }
  ],
  "configuration_version": "1"
}